<svg xmlns="http://www.w3.org/2000/svg" viewBox="0 0 454.6 43.17">
    <g id="Layer_2" data-name="Layer 2">
        <g id="Layer_1-2" data-name="Layer 1">
            <path fill="#2eafc3" d="M454.6,21.74c0,3.22-.68,4.83-2,4.83q-88.47,0-148.86,4.45T227.3,43.17Q211.42,35.47,151,31T2,26.57q-2,0-2-4.83c0-3.42.67-5.14,2-5.14q88.61,0,149-4.37T227.3,0q16,7.85,76.42,12.23T452.58,16.6C453.92,16.6,454.6,18.32,454.6,21.74Z"/>
        </g>
    </g>
</svg>